"Resource/UI/MainMenu.res"
{
	"MainMenu"
	{
		"ControlName"				"Frame"
		"fieldName"					"MainMenu"
		"xpos"						"0"
		"ypos"						"0"
		"wide"						"f0"
		"tall"						"f0"
		"autoResize"				"0"
		"pinCorner"					"0"
		"visible"					"1"
		"enabled"					"1"
		"tabPosition"				"0"
		"PaintBackgroundType"		"0"
		"setclosebuttonvisible"		"0"
	}
	
	"GameTitle"
	{
		"fieldName"				"GameTitle"
		"xpos"					"98"
		"ypos"					"150"
		"wide"					"350"
		"tall"					"60"
		"zpos"					"5"
		"font"					"ClientTitleFont"
		"textAlignment"			"west"
		"ControlName"			"Label"
		"labelText"				"HALF-LIFE'"
		"fgcolor_override"		"255 255 255 255"
	}

	"BtnSingleplayer"
	{
		"ControlName"			"BaseModHybridButton"
		"fieldName"				"BtnSingleplayer"
		"xpos"					"100"
		"ypos"					"205"
		"wide"					"180"
		"tall"					"17"
		"autoResize"			"1"
		"pinCorner"				"0"
		"visible"				"1"
		"enabled"				"1"
		"tabPosition"			"0"
		"navUp"					"BtnQuit"
		"navDown"				"BtnMultiplayer"
		"labelText"				"#GameUI_GameMenu_NewGame"
		"tooltiptext"			"#GameUI_GameMenu_NewGame_Tip"
		"style"					"MainMenuButton"
		"command"				"FlmSingleplayerFlyout"
		"ActivationType"		"1"
	}
	
	"BtnMultiplayer"
	{
		"ControlName"			"BaseModHybridButton"
		"fieldName"				"BtnMultiplayer"
		"xpos"					"100"
		"ypos"					"225"
		"wide"					"180"
		"tall"					"17"
		"autoResize"			"1"
		"pinCorner"				"0"
		"visible"				"1"
		"enabled"				"1"
		"tabPosition"			"0"
		"navUp"					"BtnSingleplayer"
		"navDown"				"BtnAchievements"
		"labelText"				"#GameUI_GameMenu_Multiplayer"
		"tooltiptext"			"#GameUI_GameMenu_Multiplayer_Tip"
		"style"					"MainMenuButton"
		"command"				"FlmMultiplayerFlyout"
		"ActivationType"		"1"
	}
	
	"BtnAchievements"
	{
		"ControlName"			"BaseModHybridButton"
		"fieldName"				"BtnAchievements"
		"xpos"					"100"
		"ypos"					"247" 
		"wide"					"180"
		"tall"					"13"
		"autoResize"			"1"
		"pinCorner"				"0"
		"visible"				"1"
		"enabled"				"1"
		"tabPosition"			"0"
		"navUp"					"BtnMultiplayer"
		"navDown"				"BtnOptions"
		"style"					"MainMenuSmallButton"
		"ActivationType"		"1"
		"labelText"				"#GameUI_GameMenu_Achievements" 
		"tooltiptext"			"#GameUI_GameMenu_Achievements"
		"command"				"Achievements"
	}
	
	"BtnOptions"
	{
		"ControlName"			"BaseModHybridButton"
		"fieldName"				"BtnOptions"
		"xpos"					"100"
		"ypos"					"265"
		"wide"					"180"
		"tall"					"13"
		"autoResize"			"1"
		"pinCorner"				"0"
		"visible"				"1"
		"enabled"				"1"
		"tabPosition"			"0"
		"navUp"					"BtnAchievements"
		"navDown"				"BtnQuit"
		"labelText"				"#GameUI_GameMenu_Options"
		"tooltiptext"			"#GameUI_GameMenu_Options_Tip"
		"style"					"MainMenuSmallButton"
		"command"				"GameOptions"
		"ActivationType"		"1"
	}

	"BtnQuit"
	{
		"ControlName"			"BaseModHybridButton"
		"fieldName"				"BtnQuit"
		"xpos"					"100"
		"ypos"					"285"
		"wide"					"180"
		"tall"					"13"
		"autoResize"			"1"
		"pinCorner"				"0"
		"visible"				"1"
		"enabled"				"1"
		"tabPosition"			"0"
		"navUp"					"BtnOptions"
		"navDown"				"BtnSingleplayer"
		"style"					"MainMenuSmallButton"
		"ActivationType"		"1"
		"labelText"				"#GameUI_GameMenu_Quit"
		"tooltiptext"			"#GameUI_GameMenu_Quit_Tip"
		"command"				"QuitGame"
	}

	"FlmMultiplayerFlyout"
	{
		"ControlName"			"FlyoutMenu"
		"fieldName"				"FlmMultiplayerFlyout"
		"visible"				"0"
		"wide"					"0"
		"tall"					"0"
		"zpos"					"3"
		"InitialFocus"			"BtnCreateGame"
		"ResourceFile"			"resource/UI/basemodui/MultiplayerFlyout.res"
	}
	
	"FlmSingleplayerFlyout"
	{
		"ControlName"			"FlyoutMenu"
		"fieldName"				"FlmSingleplayerFlyout"
		"visible"				"0"
		"wide"					"0"
		"tall"					"0"
		"zpos"					"3"
		"InitialFocus"			"BtnCreateGame"
		"ResourceFile"			"resource/UI/basemodui/SingleplayerFlyout.res"
	}
}